@startuml
actor Клиент
participant "Фронтенд Мерчанта" as Frontend
participant "Веб-интерфейс Банка" as BankInterface
participant "Бэкенд Банка" as Backend

Клиент -> Frontend : Выбирает товары и переходит к оплате
Frontend -> Клиент : Предоставляет выбор способа оплаты
Клиент -> Frontend : Выбирает оплату через Хамкорбанк
Frontend -> BankInterface : Перенаправление на страницу банка (merchant_id,amount)

alt Для карт Visa
    Клиент -> BankInterface : Вводит данные карты Visa
    BankInterface -> Backend : Определяет, что карта Visa и требуется 3DS
    Backend -> Клиент : Инициирует 3DS аутентификацию
    Клиент -> Backend : Завершает 3DS аутентификацию
else Для национальных карт(uzcard,humo)
    Клиент -> BankInterface : Вводит данные национальной карты
    BankInterface -> Backend : Определяет, что требуется SMS подтверждение
    Backend -> Клиент : Отправляет SMS с кодом
    Клиент -> Backend : Вводит код из SMS
end

Backend -> BankInterface : Проводит авторизацию и списание средств
BankInterface -> Клиент : Отображает результат операции
Клиент -> Frontend : Возвращается на сайт мерчанта с результатом оплаты

@enduml